<svg id="tennis" xmlns="http://www.w3.org/2000/svg" width="19.916" height="19.921" viewBox="0 0 19.916 19.921">
  <path id="Path_97" data-name="Path 97" d="M12.171,328l2.246,2.249-3.7,3.711a1.589,1.589,0,0,1-2.246-2.249Zm0,0" transform="translate(-7.679 -314.827)" fill="#ff826e"/>
  <path id="Path_98" data-name="Path 98" d="M117.489,246.42l-3.4,1.745-2.246-2.249,1.758-3.435a5.166,5.166,0,0,0,3.884,3.939Zm0,0" transform="translate(-107.355 -232.742)" fill="#ccd1d9"/>
  <path id="Path_99" data-name="Path 99" d="M162.822,10.443a3.906,3.906,0,0,0-1.867-1.028,4.838,4.838,0,0,0-1.137-.132,5.928,5.928,0,0,0-.89.071,6.532,6.532,0,0,0-2.14.761,7.564,7.564,0,0,0-1.639,1.247,7.4,7.4,0,0,0-1.25,1.645,6.586,6.586,0,0,0-.755,2.14c-.02.125-.035.251-.048.376a5.008,5.008,0,0,0,.106,1.655,3.95,3.95,0,0,0,1.025,1.873l.016.016a3.88,3.88,0,0,0,1.831,1.025,4.586,4.586,0,0,0,1.189.148c.051,0,.106-.009.158-.009a4.082,4.082,0,0,0-.819,1.26,6.106,6.106,0,0,1-.774-.135,5.166,5.166,0,0,1-3.884-3.939,7.683,7.683,0,0,1,2.3-6.962c2.876-2.879,7.13-3.284,9.507-.906s1.97,6.641-.906,9.52c-.128.128-.264.247-.4.363a4.129,4.129,0,0,0-1.459-.472,7.378,7.378,0,0,0,.945-.8,7.54,7.54,0,0,0,1.247-1.642,6.6,6.6,0,0,0,.762-2.136,5.1,5.1,0,0,0-.074-2.088,3.941,3.941,0,0,0-1.028-1.835.059.059,0,0,0-.016-.013Zm0,0" transform="translate(-145.694 -7.677)" fill="#fcd770"/>
  <path id="Path_100" data-name="Path 100" d="M271.9,283.878a4.157,4.157,0,0,0-3.618-3.843c-.08-.01-.161-.02-.241-.026a4.361,4.361,0,0,0-.893.032,4.2,4.2,0,0,0-2.015.877,4.34,4.34,0,0,0-.337.3c-.029.029-.055.055-.08.084a4.081,4.081,0,0,0-.819,1.26,4.179,4.179,0,0,0,.9,4.562,4.166,4.166,0,0,0,7.1-3.252Zm0,0" transform="translate(-252.99 -268.755)" fill="#b4dd7f"/>
  <g id="Group_39" data-name="Group 39" transform="translate(0 0)">
    <path id="Path_101" data-name="Path 101" d="M17.283,11.7c.03-.029.063-.056.093-.086,2.995-3,3.4-7.474.905-9.975A5.8,5.8,0,0,0,14.126,0,8.351,8.351,0,0,0,8.321,2.55,8.044,8.044,0,0,0,5.913,9.69L4.229,12.982.56,16.658a1.91,1.91,0,1,0,2.7,2.7l3.67-3.676,3.252-1.671c.1.021.2.042.295.059a4.5,4.5,0,0,0,1.1,4.53,4.459,4.459,0,0,0,3.176,1.318h0A4.459,4.459,0,0,0,17.934,18.6a4.509,4.509,0,0,0,0-6.361,4.579,4.579,0,0,0-.651-.538Zm1.285,3.219a2.516,2.516,0,0,1-.924.178,2.571,2.571,0,0,1-2.566-2.57,2.534,2.534,0,0,1,.179-.928,3.83,3.83,0,0,1,3.311,3.32Zm-6.984-2.684H11.57a4.769,4.769,0,0,1-.527-.032l.346-.347.291.291C11.649,12.182,11.615,12.209,11.584,12.239Zm4.648-2.221-1.5-1.5.989-.991,1.366,1.368A7.213,7.213,0,0,1,16.232,10.019ZM14.277,5.168l-.99-.991.99-.991.99.991Zm1.444-.536.989.991-.99.991-.989-.991Zm-1.9.991-.989.991-.99-.991.989-.991ZM12.379,7.068l-.989.991L10.4,7.069l.989-.991ZM10.935,8.514l-.989.991-.989-.991.989-.991Zm.454.455.989.991-.99.991L10.4,9.96Zm.454-.455.989-.991.989.991-.989.991Zm1.443-1.446.989-.991.989.991-.989.991ZM17.4,8.3l-1.228-1.23.989-.991.735.736A6.185,6.185,0,0,1,17.4,8.3Zm.215-2.676.349-.35A4.757,4.757,0,0,1,18,6Zm-.454-.455-.989-.991.943-.945a3.645,3.645,0,0,1,.7,1.284ZM15.72,3.722l-.989-.991.632-.633a3.612,3.612,0,0,1,1.3.679ZM14.277,2.276l-.337-.338c.062,0,.125-.011.187-.011.161,0,.318.01.473.025Zm-1.152-.245.7.7-.99.991-1.2-1.2A6.1,6.1,0,0,1,13.124,2.031Zm-2.076.813,1.331,1.332-.989.991L9.92,3.7a7.211,7.211,0,0,1,1.128-.851ZM9.465,4.15l1.471,1.473-.989.991L8.611,5.276A7.2,7.2,0,0,1,9.465,4.15ZM8.294,5.869l1.2,1.2L8.5,8.06l-.7-.7A6.13,6.13,0,0,1,8.294,5.869ZM8.048,8.515l-.324.325a4.872,4.872,0,0,1-.015-.664Zm.454.455.99.991L8.55,10.9a3.651,3.651,0,0,1-.676-1.3Zm1.444,1.446.989.991-.648.649A3.6,3.6,0,0,1,9,11.362Zm2.233,1.327-.336-.336.99-.991.684.685a4.432,4.432,0,0,0-1.338.643Zm2.1-.791-.989-.991.989-.991,1.5,1.5c-.179.163-.369.322-.574.474q-.221-.022-.446-.022a4.484,4.484,0,0,0-.481.027ZM2.805,18.907a1.268,1.268,0,0,1-1.791-1.8l3.478-3.483,1.792,1.794ZM6.8,15.029l-.061-.061L4.885,13.111l1.294-2.53A5.355,5.355,0,0,0,9.3,13.747ZM7.87,12.071C5.624,9.821,6.03,5.754,8.775,3A7.707,7.707,0,0,1,14.126.643a5.164,5.164,0,0,1,3.7,1.454c2.246,2.25,1.84,6.317-.905,9.067-.072.072-.147.138-.222.205a4.423,4.423,0,0,0-.666-.26c.153-.131.3-.264.435-.4,2.495-2.5,2.9-6.158.905-8.158a4.471,4.471,0,0,0-3.248-1.267,7.063,7.063,0,0,0-4.9,2.174A7.212,7.212,0,0,0,7.084,7.817a4.633,4.633,0,0,0,1.238,3.8,4.36,4.36,0,0,0,2.748,1.244,4.423,4.423,0,0,0-.35.6A4.975,4.975,0,0,1,7.87,12.071Zm3.076,3.851a2.521,2.521,0,0,1,.923-.178,2.571,2.571,0,0,1,2.566,2.57,2.533,2.533,0,0,1-.179.928,3.831,3.831,0,0,1-3.311-3.32Zm6.532,2.227a3.816,3.816,0,0,1-2.551,1.121,3.161,3.161,0,0,0,.151-.956A3.214,3.214,0,0,0,11.87,15.1a3.146,3.146,0,0,0-.952.151A3.838,3.838,0,0,1,12.036,12.7h0a3.814,3.814,0,0,1,2.551-1.121,3.165,3.165,0,0,0-.151.956,3.214,3.214,0,0,0,3.208,3.213,3.145,3.145,0,0,0,.952-.151,3.837,3.837,0,0,1-1.117,2.556Zm0,0" transform="translate(-0.001 0)" fill="#1e1713"/>
    <path id="Path_102" data-name="Path 102" d="M98.168,370.994l.642-.642.455.454-.642.643Zm0,0" transform="translate(-94.225 -355.478)" fill="#1e1713"/>
    <path id="Path_103" data-name="Path 103" d="M42.273,403.934l1.6-1.606.455.454-1.6,1.606Zm0,0" transform="translate(-40.576 -386.169)" fill="#1e1713"/>
  </g>
</svg>
